…
variable median\_age has some abnormal value, 30 obs are large than 150. Exclude those obs?

``` r
cancer_data %>%
  select(median_age) %>% 
  filter(median_age > 150)  #result is the same as larger than 100
```

    ## # A tibble: 30 x 1
    ##    median_age
    ##         <dbl>
    ##  1       458.
    ##  2       469.
    ##  3       546 
    ##  4       624 
    ##  5       509.
    ##  6       619.
    ##  7       498 
    ##  8       413.
    ##  9       481.
    ## 10       425.
    ## # ... with 20 more rows
…
